BORGES aceite girasol botella  3 lt	5,27 	(1,76 /l.)
BORGES vinagre balsamico de modena 250 ml + aceite de oliva virgen 250 ml	1,35 	(1,35 /ud.)
CAPRICHO ANDALUZ aceite virgen extra botella 1 lt	4,77 	(4,77 /l.)
CARBONELL aceite de oliva extra virgen botella 750 ml	5,87 	(7,83 /l.)
CARBONELL aceite de oliva suave botella 1 lt	4,94 	(5,39 /l.)
CARBONELL aceite oliva virgen botella 1 lt	5,78 	(5,78 /l.)
CHICOTE aceite de oliva virgen extra botella 500 ml	6,97 	(13,94 /l.)
COOSOL aceite de girasol botella 1 lt	1,48 	(1,48 /l.)
COOSOL aceite girasol premium botella 1 lt	1,91 	(1,91 /l.)
COOSUR aceite  de oliva virgen extra hojiblanca botella 1 lt	5,73 	(5,73 /l.)
COOSUR aceite de oliva  virgen extra picual botella 1 lt	5,73 	(5,73 /l.)
DIA aceite  de oliva virgen extra botella 1 lt	3,28 	(3,28 /l.)
DIA aceite  de oliva virgen extra frutado botella 1 lt	3,28 	(3,28 /l.)
DIA aceite  de oliva virgen extra frutado garrafa  5 lt	19,95 	(3,99 /l.)
DIA aceite de girasol garrafa  5 lt	5,69 	(1,14 /l.)
DIA aceite de oliva  virgen extra garrafa  5 lt	19,95 	(3,99 /l.)
DIA aceite de oliva extra virgen botella 750 ml	3,35 	(4,47 /l.)
DIA aceite de oliva intenso botella 1 lt	3,60 	(3,60 /l.)
DIA aceite de oliva suave botella 1 lt	3,60 	(3,60 /l.)
DIA aceite de orujo  botella 1 lt	2,05 	(2,05 /l.)
DIA aceite girasol botella 1 lt	1,17 	(1,17 /l.)
DIA aceite oliva intenso garrafa  5 lt	17,49 	(3,50 /l.)
DIA DELICIOUS aceite de oliva virgen extra D.O. botella 500 ml	3,35 	(6,70 /l.)
HOJIBLANCA aceite de oliva virgen extra botella 1 lt	5,93 	(5,93 /l.)
KOIPESOL aceite girasol botella 1 lt	1,78 	(1,94 /l.)
LA ESPANOLA aceite oliva suave botella 1 lt	4,47 	(4,88 /l.)
