Alas enteras de pollo bandeja 800 gr	3,00 	(3,75 /Kg.)
Alitas de pollo partidas 520 gr	2,50 	(4,81 /Kg.)
Alitas de pollo partidas y adobadas bandeja (peso aprox. 540 gr)	2,19 	(4,69 /Kg.)
Arreglo para puchero (peso aprox. 1.2 Kg)	3,63 	(3,49 /Kg.)
Cabeza de lomo de cerdo sin hueso en trozo (peso aprox. 1960 gr)	6,72 	(3,95 /Kg.)
Callos de ternera bandeja 500 g	2,75 	(5,50 /Kg.)
Carcasas de pollo bandeja (peso aprox. 845 gr)	0,88 	(1,20 /Kg.)
Chorizo casero extra (peso aprox. 400 gr)	1,97 	(5,69 /Kg.)
Chorizo gallego malla 500 gr	2,75 	(5,50 /Kg.)
Chuleta de aguja con hueso 600 gr	2,09 	(3,48 /Kg.)
Chuleta de lomo bandeja 600 gr	2,75 	(4,58 /Kg.)
Chuleta de sajonia bandeja 400 gr	2,99 	(7,48 /Kg.)
Chuletas de pavo al ajillo bandeja (peso aprox. 645 gr)	3,28 	(5,85 /Kg.)
Cinta de lomo adobada (peso aprox. 885 gr)	4,80 	(6,25 /Kg.)
Cinta de lomo de cerdo (peso aprox. 1255 gr)	4,90 	(4,49 /Kg.)
Codillo cocido salmuerizado (peso aprox. 1340 gr)	4,60 	(3,95 /Kg.)
Conejo entero bandeja (peso aprox. 1560 gr)	5,90 	(4,35 /Kg.)
Cuartos traseros de pollo bandeja (peso aprox. 1270 gr)	3,03 	(2,75 /Kg.)
Cuartos traseros de pollo bandeja (peso aprox. 980 gr)	2,54 	(2,99 /Kg.)
Cuartos traseros de pollo seleccion (peso aprox. 960 gr)	3,00 	(3,60 /Kg.)
Delicias de pollo bandeja 500 gr	1,99 	(3,98 /Kg.)
DIA lacon cortado a mano sobre 150 gr	1,69 	(11,27 /Kg.)
EL POZO solomillo de pavo extra tierno (peso aprox. 425 gr)	2,30 	(6,25 /Kg.)
Escalopines de ternera (peso aprox. 400 gr)	2,73 	(7,79 /Kg.)
Escalopin de jamon bandeja 400 gr	2,75 	(6,88 /Kg.)
Escalopin de lomo extratierno bandeja 600 g	3,49 	(5,82 /Kg.)
ESPINAZO SALADO 500 GRS	1,49 	(2,98 /Kg.)
Fiambre de lomo adobado bandeja 400 gr	2,60 	(6,50 /Kg.)
Filete 1oA de ternera (peso aprox. 425 gr)	3,67 	(9,99 /Kg.)
Filete de cinta de lomo tierna bandeja 250 gr	2,29 	(7,63 /Kg.)
Filete extrafino de pollo 320 gr	2,90 	(9,06 /Kg.)
Filetes de contramuslo de pollo bandeja (peso aprox. 510 gr)	2,76 	(6,25 /Kg.)
Filetes de pavo con pimenton bandeja (peso aprox. 360 gr)	2,27 	(7,25 /Kg.)
Filetes de pavo extra tierno (peso aprox. 405 gr)	2,55 	(7,25 /Kg.)
Filetes de pechuga de pollo bandeja (peso aprox. 750 gr)	4,52 	(6,95 /Kg.)
Filetes de pollo empanados bandeja 400 gr	2,80 	(7,00 /Kg.)
Flamenquin de cerdo bandeja 300 gr	1,99 	(6,63 /Kg.)
FRICHEF alitas de pollo asadas 300 gr	2,00 	(6,67 /Kg.)
FRICHEF Cuartos traseros asados Frichef 350g	2,85 	(8,14 /Kg.)
FRICHEF Jamoncitos de pollo asados Frichef 400g	2,99 	(7,48 /Kg.)
FRICHEF pollo asado Frichef 950 gr	4,99 	(5,25 /Kg.)
HEMOSA tapas de lacon bandeja 220 gr	2,15 	(9,77 /Kg.)
HUESO DE CANILLA BLANCO 500 GRS.	1,45 	(2,90 /Kg.)
Jamoncitos de pollo familiar bandeja (peso aprox. 1175 gr)	3,82 	(3,75 /Kg.)
Jamon de sajonia bandeja 400 gr	2,99 	(7,48 /Kg.)
LA BROCHE fun roll flautas de jamon york y queso bandeja 220 gr	1,55 	(7,05 /Kg.)
LA CARLOTENA redondo de pollo asado 1 unidad peso 340 g	2,99 	(8,79 /Kg.)
LA PILA tiras de pollo asado bandeja 125 gr	1,65 	(13,20 /Kg.)
Lomo de cerdo extra al ajillo (peso aprox. 840 gr)	4,71 	(6,45 /Kg.)
Lomo extra adobado bandeja 300 gr	2,50 	(8,33 /Kg.)
Longaniza fresca bandeja 350 gr	1,45 	(4,14 /Kg.)
Medio pollo troceado (peso aprox. 790 gr)	2,94 	(4,29 /Kg.)
Morcilla de burgos pieza 320 gr	1,19 	(3,72 /Kg.)
NAVIDUL lacon ahumado natural sobre 170 gr	2,00 	(11,76 /Kg.)
NOEL burguer con ajo y perejil bandeja 360 gr	1,89 	(5,25 /Kg.)
NUTRAVE fileteada de pollo extrajugosa a las finas hierbas bandeja 375 gr	2,60 	(6,93 /Kg.)
Oreja cocida de cerdo adobada 500 gr	2,50 	(5,00 /Kg.)
Oreja cocida de cerdo al ajillo 500 gr	2,50 	(5,00 /Kg.)
Panceta de cerdo en filetes bandeja 560 g	2,69 	(4,80 /Kg.)
Panceta iberica curada (peso aprox. 635 gr)	3,02 	(5,49 /Kg.)
PECHUGA PAVO ADOBADA SERRA 450GR	3,50 	(7,78 /Kg.)
Pechugas enteras de pollo bandeja (peso aprox. 645 gr)	3,22 	(5,75 /Kg.)
Pechugas enteras de pollo familiar bandeja (peso aprox. 905 gr)	4,40 	(5,60 /Kg.)
PICADA DE AVE SERRANO 300 GRS	1,70 	(5,67 /Kg.)
Pollo limpio entero unidad (peso aprox. 2070 gr)	3,91 	(2,17 /Kg.)
Pollo limpio seleccion de galicia unidad (peso aprox. 2065 gr)	5,91 	(3,29 /Kg.)
Pollo para asar 2 Kg	5,00 	(2,50 /Kg.)
POLLO RELL BACO/QUES LACAR 600GR	5,99 	(9,98 /Kg.)
POLLO RELLENO AL HORNO C/HUEVO Y JAMON LA CARLOTENA 600 GRS.	5,99 	(9,98 /Kg.)
Preparado de cocido bandeja 500 gr	1,49 	(2,98 /Kg.)
QUESADILLA POLLO/MOZZARELLA 220GR	1,75 	(7,95 /Kg.)
REDONDO DE POLLO ASADO CON JAMON COCIDO Y QUESO LA CARLOTENA 340 GRS.	2,99 	(8,79 /Kg.)
ROLER carpaccio ternera bandeja 110 g	2,70 	(24,55 /Kg.)
ROLER estofado de vacuno bandeja 500 gr	3,35 	(6,70 /Kg.)
ROLER filetes de pavo al ajillo extrafino bandeja 320 gr	3,25 	(10,16 /Kg.)
ROLER hamburguesa de vacuno bandeja 4 uds.	2,00 	(6,25 /Kg.)
ROLER hamburguesa mixta de vacuno y cerdo bandeja 4 uds.	2,00 	(6,25 /Kg.)
ROLER hamburguesas de pollo 4 unidades bandeja 320 g	2,00 	(6,25 /Kg.)
ROLER pincho andaluz de cerdo bandeja 272 gr	1,89 	(6,95 /Kg.)
ROLER pincho rojo de cerdo bandeja 272 gr	1,89 	(6,95 /Kg.)
ROLER preparado de carne picada de vacuno bandeja 380 gr	2,00 	(5,26 /Kg.)
ROLER preparado de carne picada mixta de vacuno y cerdo bandeja 380 gr	2,00 	(5,26 /Kg.)
ROLER salchicha fresca de cerdo bandeja 320 gr	2,00 	(6,25 /Kg.)
ROLER solomillo de cadera bandeja 230 gr	4,50 	(19,57 /Kg.)
Rollitos de pollo bandeja (peso aprox. 620 gr)	2,08 	(3,85 /Kg.)
San jacobo de cerdo bandeja 320 gr	1,49 	(3,72 /Kg.)
SANDELI san jacobo de pollo y pavo 340g	1,50 	(4,41 /Kg.)
Secreto de cerdo (peso aprox. 770 gr)	3,69 	(5,50 /Kg.)
SERRANO fiambre de magro envase 240 gr	1,49 	(6,21 /Kg.)
SERRANO filetes de lomo de pavo adobado envase 200 g	1,85 	(7,71 /Kg.)
SERRANO filetes de pechuga de pavo adobada envase 200 g	1,85 	(9,25 /Kg.)
SERRANO filetes de pechuga de pavo finas lonchas envase 150 g	1,60 	(10,67 /Kg.)
SERRANO hamburguesa de ave bandeja 4 uds 350 gr	1,90 	(5,94 /Kg.)
Serrano hamburguesa de pavo y pollo con queso bandeja 300 gr	1,90 	(6,33 /Kg.)
SERRANO lomo de pavo bandeja 450 gr	2,95 	(6,56 /Kg.)
SERRANO longanizas frescas de ave bandeja 400 g	1,95 	(5,57 /Kg.)
SERRANO magro adobado bandeja 500 gr	2,75 	(5,50 /Kg.)
SERRANO pechuga de pavo a las finas hierbas bandeja 200 gr	1,85 	(9,25 /Kg.)
Solomillo de cerdo (peso aprox. 585 gr)	3,49 	(6,89 /Kg.)
Solomillo de cerdo 2 unidades (peso aprox. 980 gr)	6,67 	(7,85 /Kg.)
Solomillos de pollo bandeja (peso aprox. 415 gr)	2,81 	(7,80 /Kg.)
Tira de costilla de cerdo fresca (peso aprox. 935 gr)	4,01 	(4,95 /Kg.)
VALLE DEL SORBE costillas adobadas de cerdo 500 gr	1,75 	(3,50 /Kg.)
VALLINA compango asturiano bandeja 250 gr	1,90 	(7,60 /Kg.)
VALLINA morcilla asturiana envase 250 gr	1,90 	(7,60 /Kg.)
