ALBO atun claro en aceite de oliva lata 82 grs	2,19 	(26,71 /Kg.)
ALBO atun claro en aceite de oliva pack de 3 latas x 48 grs	3,73 	(19,43 /Kg.)
ALBO atun claro en aceite de oliva virgen extra pack de 3 latas 48 grs	3,73 	(25,90 /Kg.)
ALBO bonito del norte en aceite de oliva lata 82 grs	2,85 	(34,76 /Kg.)
ALBO calamares en su tinta lata 72 grs	1,78 	(24,72 /Kg.)
ALBO sardinas en aceite de oliva lata 85 grs	1,95 	(22,94 /Kg.)
ALBO sardinas en escabeche lata 85 grs	1,85 	(21,76 /Kg.)
ALBO sardinas picantonas lata 85 grs	1,95 	(22,94 /Kg.)
BAYMAR berberechos al natural pequenos lata 58 gr	2,17 	(37,41 /Kg.)
BAYMAR navajas 8/14 piezas lata 63 gr	1,99 	(31,59 /Kg.)
BOYA tronco de caballa en aceite vegetal pack 3 latas 156 gr	1,77 	(11,35 /Kg.)
CABO DE HORNOS navajas al natural lata 63 grs	1,69 	(26,83 /Kg.)
CALVO atun aceite oliva pack-3 latas 156 g	2,51 	(16,09 /Kg.)
CALVO atun claro al natural pack de 3 latas x 168 gr	2,39 	(14,23 /Kg.)
CALVO atun claro en aceite de oliva pack de 3 latas x 52 grs	3,19 	(20,45 /Kg.)
CALVO atun claro en aceite de oliva tarro 163 g	3,89 	(23,87 /Kg.)
CALVO atun claro en aceite girasol pack de 6 latas x 52 grs	4,35 	(13,94 /Kg.)
CALVO atun claro en aceite vegetal lata 403 grs	4,95 	(12,28 /Kg.)
CALVO atun claro en aceite vegetal pack 3 latas x 52 grs	2,39 	(15,32 /Kg.)
CALVO atun en aceite de oliva bajo en sal pack de 3 latas x 52 grs	3,19 	(20,45 /Kg.)
CALVO atun claro en aceite oliva virgen extra pack 3 latas x 52 gr	2,95 	(18,91 /Kg.)
CALVO atun claro en aceite vegetal pack 5+1 lata gratis 312 gr	3,99 	(12,79 /Kg.)
CALVO atun en aceite de girasol lata 195 gr	2,00 	(10,26 /Kg.)
CALVO atun en aceite vegetal lata 104 gr	1,39 	(13,37 /Kg.)
CALVO atun en aceite vegetal pack 6 latas 312 gr	3,99 	(12,79 /Kg.)
CALVO mejillones en escabeche 14/19 piezas lata 69  grs	1,12 	(16,23 /Kg.)
CALVO mejillones en escabeche 14/19 piezas pack 2 latas	2,00 	(14,49 /Kg.)
CALVO mejillones en escabeche 8/12 piezas lata 69 grs	2,13 	(30,87 /Kg.)
CALVO mejillones en escabeche pack de 3 latas x 40 grs	1,65 	(13,75 /Kg.)
CALVO sardinas en aceite de oliva lata 81 grs	0,97 	(11,98 /Kg.)
CALVO sardinillas en aceite de oliva baja en sal lata 60 g	1,19 	(19,83 /Kg.)
CLAROS filetes de anchoa en aceite oliva pack 3 latas 75 gr	2,99 	(39,87 /Kg.)
CONSORCIO filetes de anchoa en aceite de oliva lata 29g neto escurrido	2,25 	(77,59 /Kg.)
DANI almejas en concha en su propio jugo lata 310 gr	1,55 	(5,00 /Kg.)
DANI almejas natural 63 grs	1,45 	(23,02 /Kg.)
DANI atun claro en aceite de girasol pack 2 latas 104 gr	1,00 	(9,62 /Kg.)
DANI berberechos al natural 40/50 piezas lata 63 grs	2,85 	(45,24 /Kg.)
DANI berberechos al natural 55/65 piezas lata 58 grs	2,69 	(46,38 /Kg.)
DANI berberechos al natural 65-up lata 63 grs	2,25 	(35,71 /Kg.)
DANI berberechos al natural tamano pequeno lata 90 grs	2,79 	(31,00 /Kg.)
DANI mejillones en escabeche pack 2 latas 86 gr	1,25 	(14,53 /Kg.)
DANI mejillones en escabeche tamano pequeno lata 69 grs	0,89 	(12,90 /Kg.)
DANI navajuelas al natural lata 63 gr	1,75 	(27,78 /Kg.)
DANI sardinillas en aceite de oliva baja en sal lata 65 gr	0,98 	(15,08 /Kg.)
DANI sardinillas en aceite de oliva virgen extra lata 65 g	0,98 	(15,08 /Kg.)
DIA atun claro al natural pack de 6 latas x 56 grs	2,75 	(8,18 /Kg.)
DIA atun claro en aceite de girasol  pack de 6 latas x 52 grs	2,89 	(9,26 /Kg.)
DIA atun claro en aceite de girasol pack de 3 latas x 52 grs	1,49 	(9,55 /Kg.)
DIA atun claro en aceite de oliva pack de 3 latas x 52 grs	1,79 	(11,47 /Kg.)
DIA atun claro en aceite de oliva pack de 6 latas x 52 grs	2,99 	(9,58 /Kg.)
DIA atun claro en escabeche pack de 3 latas x 52 grs	1,49 	(9,55 /Kg.)
DIA atun claro en escabeche pack de 6 latas x 52 grs	2,89 	(9,26 /Kg.)
DIA atun en aceite de girasol lata con tapa y abrefacil 650 grs	4,30 	(6,62 /Kg.)
DIA atun en aceite de girasol pack de 3 latas x 52 grs	1,39 	(8,91 /Kg.)
DIA atun en aceite vegetal lata 260 grs	2,39 	(9,19 /Kg.)
DIA atun claro al natural pack de 3 latas 168 gr	1,49 	(8,87 /Kg.)
DIA atun en aceite de girasol pack de 6 latas 312 gr	2,75 	(8,81 /Kg.)
DIA atun en tomate pack de 3 latas 156 gr	1,55 	(9,94 /Kg.)
DIA berberechos al natural 70/100 piezas lata 63 gr	2,15 	(34,13 /Kg.)
DIA bonito en aceite de oliva pack de 2 latas x 72 grs	2,17 	(14,86 /Kg.)
DIA chipirones rellenos en su tinta lata 72 grs	1,65 	(22,92 /Kg.)
DIA DELICIOUS bonito del norte en aceite de oliva frasco 140 gr	2,95 	(21,07 /Kg.)
DIA DELICIOUS ventresca de atun claro en aceite de oliva lata 73 gr	1,70 	(23,29 /Kg.)
DIA DELICIOUS filetes de anchoa del cantabrico en aceite de oliva lata 55 g	3,99 	(72,55 /Kg.)
DIA filetes de caballa del sur en aceite de oliva lata 63 gr	0,68 	(10,79 /Kg.)
DIA filetes de caballa del sur en aceite girasol lata 69 gr	0,59 	(9,52 /Kg.)
DIA filetes de caballa del sur en tomate lata 63 gr	0,59 	(9,37 /Kg.)
DIA filetes de caballa en aceite de girasol pack 2 latas 126 gr	1,25 	(10,08 /Kg.)
DIA gulicias del mar al ajillo lata 50 grs	1,34 	(26,80 /Kg.)
DIA mejillones en escabeche 13/18 piezas pack de 2 latas x 69 grs	1,55 	(11,23 /Kg.)
DIA mejillones en escabeche 8/12 piezas lata 69 gr	1,49 	(21,59 /Kg.)
DIA mejillones en escabeche pack de 3 latas x 43 grs	1,19 	(9,22 /Kg.)
DIA mejillones en escabeche picante 14/18 piezas lata 69 grs	1,15 	(16,67 /Kg.)
DIA mejillones en salsa vieira 14/18 piezas lata 68 grs	0,99 	(14,35 /Kg.)
DIA mejillon al natural 13/18 lata 69 g	1,05 	(15,22 /Kg.)
DIA navajuelas al natural lata 63 grs	1,45 	(23,02 /Kg.)
DIA poton en salsa americana pack de 3 latas x 55 gr	1,03 	(6,24 /Kg.)
DIA sardinas en aceite de oliva pack 2x170 gr	1,27 	(7,22 /Kg.)
DIA sardinas en aceite vegetal pack de 2 latas de 85 grs	1,08 	(6,35 /Kg.)
DIA sardinas en salsa de tomate pack 2 x 78 gr	1,17 	(7,50 /Kg.)
DIA sardinilla en aceite vegetal pack de 2 latas de 63 grs	1,17 	(9,29 /Kg.)
DIA sardinillas en aceite de oliva lata 62 grs	0,62 	(10,00 /Kg.)
DIA sardinillas en aceite de oliva virgen extra bajo en sal lata 62 gr	0,65 	(10,48 /Kg.)
DIA sardinillas en aceite picante lata 62 grs	0,55 	(8,87 /Kg.)
DIA sardinillas en tomate lata 62 grs	0,55 	(8,87 /Kg.)
DIA tacos en aceite de girasol lata 72 g	0,85 	(11,81 /Kg.)
DIA tacos en salsa gallega lata 168 grs	1,83 	(10,89 /Kg.)
DIA zamburinas en salsa vieira lata 65 grs	1,29 	(19,85 /Kg.)
FINISTER filetes de anchoa en aceite de girasol lata 30g neto escurrido	0,82 	(28,28 /Kg.)
FINISTER filetes de anchoa en aceite de girasol pack 3 latas 87 gr	2,47 	(28,39 /Kg.)
GRANDES HOTELES almejones al natural lata 65 gr	1,39 	(21,38 /Kg.)
GRANDES HOTELES atun en aceite girasol ol240 lata 144 gr	2,29 	(15,90 /Kg.)
GRANDES HOTELES berberechos al natural 40/50 piezas lata 63 grs	3,80 	(60,32 /Kg.)
GRANDES HOTELES berberechos al natural 50/60 piezas lata 63 gr	2,99 	(47,46 /Kg.)
GRANDES HOTELES calamares en salsa americana lata 72 g	1,15 	(15,97 /Kg.)
GRANDES HOTELES calamares trozos tinta lata 72 g	1,15 	(15,97 /Kg.)
GRANDES HOTELES filetes de caballa en aceite girasol lata 700 gr	5,86 	(8,37 /Kg.)
GRANDES HOTELES mejillones en escabeche 14/18 piezas lata 69 grs	1,05 	(15,22 /Kg.)
GRANDES HOTELES sardinas en tomate lata 88 grs	0,75 	(8,52 /Kg.)
GRANDES HOTELES sardinillas en aceite de oliva lata 62 grs	1,15 	(18,55 /Kg.)
GRANDES HOTELES sardinillas en aceite vegetal lata 62 gr	0,80 	(12,90 /Kg.)
ISABEL atun claro en aceite de oliva pack de 6 latas x 52 grs	4,79 	(15,35 /Kg.)
ISABEL atun en aceite vegetal lata 260 gr	3,05 	(11,73 /Kg.)
ISABEL atun en aceite vegetal pack de 3 latas x 52 grs	1,79 	(11,47 /Kg.)
ISABEL atun en aceite vegetal lata 650 g	6,69 	(10,29 /Kg.)
ISABEL bonito en aceite de oliva tarro 260 g	5,93 	(22,81 /Kg.)
ISABEL burguer de atun abrir y listo caja 2 uds	2,19 	(14,60 /Kg.)
ISABEL filetes de atun con verduritas en salsa 180 g	2,25 	(12,50 /Kg.)
ISABEL mejillon en escabeche  pack 3 latas x 43 grs	1,65 	(12,79 /Kg.)
ISABEL mejillones al natural 13/18 uds lata 86 gr	1,15 	(13,37 /Kg.)
ISABEL mejillones en escabeche 13/18 piezas lata 69 grs	1,15 	(16,67 /Kg.)
ISABEL mejillones en escabeche 8/12 piezas lata 69 grs	1,65 	(23,91 /Kg.)
ISABEL mejillones en salsa vieira 13/18 piezas lata 69 grs	1,15 	(16,67 /Kg.)
LA TORRE PUNSET filetes de anchoa en aceite oliva lata 30 gr	1,90 	(63,33 /Kg.)
LOLA filetes de caballa en aceite de oliva lata 80 gr	1,42 	(17,75 /Kg.)
LOLA filetes de melva de andalucia en aceite de girasol lata 80 gr	1,99 	(24,88 /Kg.)
MAR DE JALON lomos de bonito en aceite de girasol frasco 120 gr	1,99 	(16,58 /Kg.)
MASSO bonito del norte en aceite de oliva lata 164 grs	3,30 	(20,12 /Kg.)
MAYON atun claro en aceite de girasol pack 3 latas 126 gr	1,29 	(10,24 /Kg.)
MAYOZ mayulas de aguinaga al ajillo lata 55 grs	1,35 	(24,55 /Kg.)
NOLY filetes de anchoa en aceite vegetal tarro 55g neto escurrido	1,99 	(36,18 /Kg.)
TEJERO atun de almadraba en aceite de oliva pack 3 latas 156 gr	2,39 	(15,32 /Kg.)
TEJERO filetes de caballa de andalucia lata 160 gr	3,09 	(19,31 /Kg.)
TEJERO filetes de caballa en aceite de girasol lata 78 grs	1,25 	(16,03 /Kg.)
TEJERO langostillos al natural lata 40 gr	1,99 	(49,75 /Kg.)
TEJERO sardinillas de la costa en aceite de oliva lata 60 gr	1,29 	(21,50 /Kg.)
UBAGO caballa del sur en aceite de oliva lata 85 grs	1,21 	(14,24 /Kg.)
UBAGO filetes de caballa del sur en aceite de girasol lata 65 gr	0,81 	(12,46 /Kg.)
UBAGO filetes de caballa del sur en salsa de tomate lata 65 gr	0,81 	(12,46 /Kg.)
UBAGO gula del norte al ajillo lata 100 gr	2,99 	(29,90 /Kg.)
UBAGO langostillos al natural lata 45 grs	2,23 	(49,56 /Kg.)
UBAGO melva en aceite de oliva lata 85  grs	1,79 	(21,06 /Kg.)
UBAGO melva en aceite vegetal lata 85 grs	1,55 	(18,24 /Kg.)
VIAMARIS ventresca de atun claro en aceite de oliva lata 78 gr	2,25 	(28,85 /Kg.)
