ARGAL fuet calidad extra envase 120 gr	1,00 	(8,33 /Kg.)
BN espetec nature envase 160 gr	1,55 	(9,69 /Kg.)
CAMPOFRIO fuet extra 170 gr	1,79 	(10,53 /Kg.)
DIA chistorra envase 220 g	0,95 	(4,32 /Kg.)
DIA chorizo de pavo lonchas envase 150 gr	1,79 	(11,93 /Kg.)
DIA chorizo extra lonchas sobre 100 gr	1,00 	(10,00 /Kg.)
DIA chorizo extra lonchas sobre 225 g	1,29 	(5,73 /Kg.)
DIA chorizo extra sin colorantes envase 385 g	2,79 	(7,25 /Kg.)
DIA chorizo Pamplona loncheado sobre 225 g	1,35 	(6,00 /Kg.)
DIA chorizo sarta extra envase 280 g	1,65 	(5,89 /Kg.)
DIA chorizo sarta extra picante envase 280 g	1,65 	(5,89 /Kg.)
DIA DELICIOUS jamon iberico lonchas sobre 100 g	4,69 	(46,90 /Kg.)
DIA DELICIOUS lomo de cebo iberico envase 100 gr	3,14 	(31,40 /Kg.)
DIA DELICIOUS paleta iberica lonchas sobre 100 gr	3,99 	(39,90 /Kg.)
DIA DELICIOUS surtido iberico lonchas sobre 200 gr	5,69 	(28,45 /Kg.)
DIA DELICIOUS chorizo iberico lonchas envase 100 gr	1,75 	(17,50 /Kg.)
DIA DELICIOUS salchichon iberico lonchas envase 100 gr	1,75 	(17,50 /Kg.)
DIA espetec extra envase 210 g	1,69 	(8,05 /Kg.)
DIA fuet envase 2x170 g	2,55 	(7,50 /Kg.)
DIA jamon curado finas lonchas sobre 2x90 g	3,25 	(18,06 /Kg.)
DIA jamon curado medias lonchas envase 70 gr	1,00 	(14,29 /Kg.)
DIA jamon serrano lonchas extra finas sobre 120 gr	1,99 	(16,58 /Kg.)
DIA jamon serrano lonchas sobre 200 g	2,55 	(12,75 /Kg.)
DIA jamon serrano sobre 240 g	3,29 	(13,71 /Kg.)
DIA lomo embuchado taco envase 400 gr	5,25 	(13,13 /Kg.)
DIA lomo lonchas sobre 2x60 g	1,65 	(13,75 /Kg.)
DIA longaniza de pages lonchas sobre 125 g	1,49 	(11,92 /Kg.)
DIA mini taquitos de jamon curado  envase 2 x 75 gr	1,55 	(10,33 /Kg.)
DIA paleta curada lonchas sobre 150 g	1,89 	(12,60 /Kg.)
DIA paleta curada lonchas sobre 240 gr	2,79 	(11,63 /Kg.)
DIA salami extra sobre 225 g	1,25 	(5,56 /Kg.)
DIA salchichon a la pimienta envase 150 gr	1,48 	(9,87 /Kg.)
DIA salchichon de pavo lonchas envase 150 gr	1,79 	(11,93 /Kg.)
DIA salchichon extra lonchas sobre 100 gr	1,00 	(10,00 /Kg.)
DIA salchichon extra lonchas sobre 225 g	1,29 	(5,73 /Kg.)
DIA surtido chorizo / salchichon envase 225 g	1,62 	(7,20 /Kg.)
DIA surtido de embutidos sobre 200 g	1,89 	(9,45 /Kg.)
DIA taco de jamon curado sobre 300 gr	3,89 	(12,97 /Kg.)
DIA taquitos de jamon curado envase 150 gr	1,85 	(12,33 /Kg.)
EL POZO fuet casero duplo envase pack 2 piezas 340 g	2,79 	(9,30 /Kg.)
EL POZO fuet espetec envase 170 g	1,50 	(8,82 /Kg.)
EL POZO fuet nobleza envase 320 g	2,00 	(6,25 /Kg.)
EL POZO imperial de pavo envase 235 gr	2,00 	(8,51 /Kg.)
EL POZO jamon curado finas lonchas seleccion sobre 90 gr	1,50 	(16,67 /Kg.)
EL POZO longaniza imperial envase 280 gr	2,50 	(9,26 /Kg.)
EMBUTIDOS ESTEBAN chorizo de pamplona extra envase 225 gr	1,35 	(6,00 /Kg.)
EZEQUIEL chorizo extra dulce envase 500 gr	5,99 	(11,98 /Kg.)
EZEQUIEL chorizo extra picante envase 500 gr	5,99 	(11,98 /Kg.)
EZEQUIEL salchichon extra envase 500 gr	5,99 	(11,98 /Kg.)
NAVIDUL cana de lomo lonchas sobre 50 g	1,00 	(20,00 /Kg.)
NAVIDUL jamon curado lonchas 170 g	2,99 	(17,59 /Kg.)
NAVIDUL jamon curado lonchas 55 g	1,00 	(18,18 /Kg.)
NAVIDUL jamon de cebo iberico de extremadura sobre 110 gr	6,99 	(63,55 /Kg.)
NAVIDUL taquitos de jamon curado envase 70 gr	1,00 	(15,38 /Kg.)
PALACIOS chorizo sarta envase 250 g	2,85 	(11,40 /Kg.)
REVILLA chorizo tradicion lonchas sobre 85 gr	1,00 	(11,76 /Kg.)
REVILLA salchichon tradicional lonchas sobre 85 g	1,00 	(11,76 /Kg.)
SANCHEZ ALCARAZ taquitos light envase 2x50 g	2,03 	(20,30 /Kg.)
TARRADELLAS espetec extra envase 180 g	1,85 	(10,28 /Kg.)
TARRADELLAS espetec pack 2x180 gr	3,54 	(9,83 /Kg.)
TREPAL  surtido ibericos + cabecero envase 1,1 kg	9,99 	(9,08 /Kg.)
TRONCO BETRAN chorizo embutidos tipicos de leon envase 450 gr	4,25 	(9,44 /Kg.)
TRONCO BETRAN lomo de cebo iberico envase 80 gr	3,99 	(49,88 /Kg.)
TRONCO BETRAN longaniza de payes envase 125 gr	1,99 	(15,92 /Kg.)
TRONCO BRETAN chorizo iberico extra envase 900 gr	6,99 	(7,77 /Kg.)
TRONCO BRETAN jamon curado lonchas lonchas sobre 100 g	1,65 	(16,50 /Kg.)
TRONCO BRETAN jamon curado lonchas sobre 400 g	5,99 	(14,98 /Kg.)
TRONCO BRETAN jamon de hembra lonchas envase 240 gr	3,49 	(14,54 /Kg.)
TRONCO BRETAN jamon iberico cebo lonchas sobre 100 gr	4,39 	(43,90 /Kg.)
TRONCO BRETAN surtido de embutidos lonchas sobre 150 g	1,89 	(12,60 /Kg.)
TRONCO BRETAN surtido iberico chorizo y salchichon envase 2x550 g	8,55 	(7,77 /Kg.)
VALLINA chorizo asturiano envase 250 gr	1,90 	(7,60 /Kg.)
