DIA gaseosa botella 1.5 lt	0,26 	(0,17 /l.)
DIA gaseosa botella 50 cl	0,19 	(0,38 /l.)
GEISER gaseosa sifon 1.5 lt	1,28 	(0,85 /l.)
LA CASERA gaseosa botella 1.5 lt	0,80 	(0,53 /l.)
LA CASERA gaseosa botella 50 cl	0,56 	(1,12 /l.)
