APIS pate higado cerdo lata 200GR	1,11 	(5,55 /Kg.)
APIS pate de higado sabor intenso pack 3 x 80 gr	2,24 	(9,33 /Kg.)
APIS pate suave pack 3 latas 240 gr	1,90 	(7,92 /Kg.)
ARGETA junior pate de pollo al gusto pizza lata 95 gr	1,00 	(10,53 /Kg.)
ARGETA pate de atun lata 95 gr	1,25 	(13,16 /Kg.)
ARNAUD mousse de ave oporto tarro 90 gr	1,69 	(18,78 /Kg.)
ARNAUD mousse de pato a la pimienta tarro 90 gr	1,69 	(18,78 /Kg.)
ARNAUD mousse de pato armagnac tarro 90 gr	1,69 	(18,78 /Kg.)
CALVO pate atun claro pack 2 latas 165GR	1,99 	(12,06 /Kg.)
CAPRICHOS DEL MAR pate de centollo tarro 110GR	1,95 	(17,73 /Kg.)
CAPRICHOS DEL MAR pate de langosta tarro 110GR	1,95 	(17,73 /Kg.)
CAPRICHOS DEL MAR pate de necora tarro 110 grs.	3,95 	(35,91 /Kg.)
CAPRICHOS DEL MAR pate de pulpo a la gallega tarro 110 grs.	1,95 	(17,73 /Kg.)
DELICASS pate de higado de pato al moscatel lata 130 gr	2,65 	(20,38 /Kg.)
DELICASS pate de higado de pato al oporto lata 130 gr	2,65 	(20,38 /Kg.)
DELICASS pate de pato al Pedro Ximenez lata 130 gr	2,65 	(20,38 /Kg.)
DIA DELICIOUS bloc de foie gras de pato lata 200 gr	4,99 	(24,95 /Kg.)
DIA DELICIOUS foie gras entero pato tarro 125 gr	7,99 	(63,92 /Kg.)
DIA DELICIOUS mousse de boletus tarro 110 gr	1,69 	(15,36 /Kg.)
DIA DELICIOUS mousse de cabracho tarro 110 gr	1,69 	(15,36 /Kg.)
DIA DELICIOUS mousse de salmon ahumado tarro 115 gr	1,69 	(14,70 /Kg.)
DIA pate atun claro p-2 lata 160 gr	1,29 	(8,06 /Kg.)
DIA pate atun en aceite oliva lata 85GR	0,79 	(9,29 /Kg.)
DIA pate campana tarro 125 gr	0,70 	(5,60 /Kg.)
DIA pate de finas hierbas tarro 125GR	0,60 	(4,80 /Kg.)
DIA pate de pimienta tarro 125GR	0,60 	(4,80 /Kg.)
DIA pate higado cerdo tarro 200GR	0,65 	(3,25 /Kg.)
DIA pate iberico tarro 125 gr	0,75 	(6,00 /Kg.)
DIA pate de atun en escabeche pack 2 latas 160 gr	1,20 	(7,50 /Kg.)
DIA pate de pato tarro 180 gr	0,99 	(5,50 /Kg.)
DIA pate higado de cerdo lata 3 x 78 gr	0,99 	(4,23 /Kg.)
DIA surtido de pates 4 unidades bolsa 360 gr	2,49 	(6,92 /Kg.)
KATEALDE pate de foie al aporto lata 130 gr	2,65 	(20,38 /Kg.)
LA PIARA pate higado cerdo lata 184GR	2,15 	(11,68 /Kg.)
LA PIARA pate de atun en aceite lata 2X75G	2,68 	(17,87 /Kg.)
LA PIARA pate de salmon ahumado lata 84 gr	1,31 	(15,60 /Kg.)
LA PIARA pate tapa negra -50% grasa pack 2 latas 146GR	2,55 	(17,47 /Kg.)
LA PIARA pate tapa negra lata 225 gr	2,44 	(10,84 /Kg.)
LOURINO pate iberico lata 200GR	1,10 	(5,50 /Kg.)
MINA pate higado cerdo lata 240GR	1,10 	(4,58 /Kg.)
PAMPLONICA pate de higado de cerdo lata 200 gr	1,02 	(5,10 /Kg.)
RHIN pudin de cabracho tarro 125 gr	1,99 	(15,92 /Kg.)
RHIN pudin de salmon tarro 125 gr	1,99 	(15,92 /Kg.)
SOROA pate de pato al champagne lata 130 gr	2,65 	(20,38 /Kg.)
