Acelga bolsa 300 gr	0,99 	(3,30 /Kg.)
Acelgas manojo 1 kg	1,19 	(1,19 /Kg.)
Ajetes tiernos bandeja 200 gr	1,19 	(9,92 /Kg.)
Ajo morado malla 250 gr	1,29 	(5,16 /Kg.)
Ajo morado malla 500 gr	2,39 	(4,78 /Kg.)
Apio bolsa 500 gr	0,75 	(1,50 /Kg.)
Berenjena bandeja 500 gr	0,69 	(1,38 /Kg.)
Brocoli pieza 500 gr	0,89 	(1,78 /Kg.)
CACHELOS PRADO patatas malla 3 Kg	2,99 	(1,00 /Kg.)
Calabacin malla 1 Kg	0,89 	(0,89 /Kg.)
Calabacin unidad (405 gr aprox.)	0,42 	(1,19 /Kg.)
Calabaza bandeja 500gr	1,45 	(2,90 /Kg.)
Calabaza violina (1380 gr aprox.)	1,62 	(1,35 /Kg.)
Cebolla buti 1 Kg	1,00 	(1,00 /Kg.)
Cebolla deshidratada bolsa 50 gr	0,99 	(19,80 /Kg.)
Cebolla dulce bandeja 500 gr	1,99 	(3,98 /Kg.)
Cebolla malla 2 Kg	1,29 	(0,65 /Kg.)
Cebolla morada malla 500 gr	0,99 	(1,98 /Kg.)
Cebolla tierna 3-4 piezas manojo 275 gr	0,89 	(0,89 /ud.)
Cebollita francesa malla 500 gr	0,99 	(1,98 /Kg.)
Champinon laminado bandeja 250 gr	1,25 	(5,00 /Kg.)
Champinon pie de tierra bandeja 300 gr	1,00 	(3,33 /Kg.)
Cogollos bandeja 3 uds	0,99 	(0,33 /ud.)
Coliflor ud	1,89 	(1,89 /ud.)
Corazones de cogollos 6 uds	1,99 	(0,33 /ud.)
Corazones de lechuga romana bandeja 2 uds	1,39 	(0,70 /ud.)
Croutones cesar tarrina 70 gr	0,79 	(11,29 /Kg.)
DIA canonigos bolsa 100 gr	0,99 	(9,90 /Kg.)
DIA ensalada 4 estaciones bolsa 250 gr	0,58 	(2,32 /Kg.)
DIA ensalada de brotes tiernos 70 gr	0,99 	(14,14 /Kg.)
DIA ensalada gourmet bolsa 175 gr	0,99 	(5,66 /Kg.)
DIA ensalada seleccion 5 brotes bolsa 100 gr	1,19 	(11,90 /Kg.)
DIA ensalada variada bolsa 200 gr	0,89 	(4,45 /Kg.)
DIA espinacas bolsa 300 gr	0,89 	(2,97 /Kg.)
DIA lechuga iceberg bolsa 200 gr	0,85 	(4,25 /Kg.)
Endivias bandeja 350 gr	1,15 	(3,29 /Kg.)
Ensalada familiar premium 300 gr	2,99 	(9,97 /Kg.)
Ensalada mezclum bolsa 150g	1,19 	(7,93 /Kg.)
Ensalada mixta bandeja 400 gr	1,99 	(4,98 /Kg.)
Ensaladilla rusa deshidratada bandeja 110 gr	1,89 	(17,18 /Kg.)
Escarola bolsa 150 g	1,25 	(8,33 /Kg.)
Escarola ud	1,49 	(1,49 /ud.)
Espinacas con garbanzos tarrina 360 gr	2,49 	(6,92 /Kg.)
Esparrago verde 250 g	1,69 	(6,76 /Kg.)
FLORETTE  menu completa italiana bandeja 315 gr	3,89 	(12,35 /Kg.)
FLORETTE duo canonigo y rucula bolsa 100 gr	1,49 	(14,90 /Kg.)
FLORETTE ensalada cesar con pollo y queso tarrina 200 gr	2,75 	(13,41 /Kg.)
FLORETTE ensalada gourmet estacion bolsa 150 gr	1,75 	(11,67 /Kg.)
FLORETTE ensalada marinera 270 gr	2,75 	(10,19 /Kg.)
FLORETTE ensalada mixta bolsa 150 gr	1,29 	(8,60 /Kg.)
FLORETTE ensalada rucula bolsa 50 gr	1,00 	(20,00 /Kg.)
FLORETTE pasta + rucula 320 gr	2,75 	(8,59 /Kg.)
FRESQUITA cebolla frita crujiente tarrina 100 gr	1,25 	(12,50 /Kg.)
FUENTES cebolla dulce unidad (330 gr aprox.)	0,74 	(2,59 /Kg.)
Judia verde extra bandeja 400 gr	1,49 	(3,73 /Kg.)
Judia verde malla 500 gr	1,29 	(2,58 /Kg.)
Lechuga batavia ud	0,79 	(0,79 /ud.)
Lechuga hoja de roble roja ud	1,00 	(1,00 /ud.)
Lechuga hoja de roble verde ud	1,00 	(1,00 /ud.)
Lechuga iceberg pieza 1 ud	0,59 	(0,59 /ud.)
Lechuga salanova bandeja 2 uds	1,00 	(0,50 /ud.)
Maiz cocido 2 mazorcas bolsa 400 gr	1,19 	(2,97 /Kg.)
Mix de setas bandeja 150 g	1,99 	(13,27 /Kg.)
Patata cepillada malla 5 kg	2,49 	(0,50 /Kg.)
Patata especial freir malla 3 kg	2,99 	(1,00 /Kg.)
Patata especial microondas bolsa 400 gr	0,99 	(2,47 /Kg.)
Patata guarnicion malla 1 kg	1,00 	(1,00 /Kg.)
Patata lavada malla 3 kg	2,79 	(0,93 /Kg.)
Patata lavada malla 5 Kg	2,25 	(0,45 /Kg.)
Patata unidad (235 gr aprox.)	0,21 	(1,00 /Kg.)
Patatas a lo pobre tarrina 360 gr	1,89 	(5,25 /Kg.)
Patatas linea sabor bolsa 1.5 Kg	1,99 	(1,33 /Kg.)
Pepino espanol unidad (230 gr aprox.)	0,20 	(0,99 /Kg.)
Pepino holandes pieza 325 gr	0,59 	(1,82 /Kg.)
Pepino malla 1 kg	0,79 	(0,79 /Kg.)
Perejil manojo 125 gr	0,50 	(4,00 /Kg.)
Pimiento asado en tiras bicolor tarrina 350 gr	2,19 	(6,26 /Kg.)
Pimiento asado entero bandeja 500 gr	2,39 	(4,78 /Kg.)
Pimiento extremeno bolsa 50 gr	0,99 	(19,80 /Kg.)
Pimiento italiano malla 500 gr	0,99 	(1,98 /Kg.)
Pimiento italiano unidad (130 gr aprox.)	0,23 	(1,99 /Kg.)
Pimiento lamuyo rojo bolsa (290 gr aprox.)	0,50 	(1,99 /Kg.)
Pimiento lamuyo verde bolsa (290 gr aprox.)	0,55 	(2,19 /Kg.)
Pimiento rojo malla 500 gr	0,99 	(1,98 /Kg.)
Pimiento tipo padron bolsa 200 gr	1,00 	(5,00 /Kg.)
Pimientos tres colores bolsa 500 gr	1,39 	(2,78 /Kg.)
Pisto bandeja 380 gr	2,39 	(6,29 /Kg.)
Preparado para pure bandeja (1380 gr aprox.)	1,79 	(1,49 /Kg.)
Puerro bandeja 450 gr	1,49 	(3,31 /Kg.)
Puerro manojo 500 gr	1,39 	(1,39 /ud.)
Remolacha cocida bolsa 500 gr	0,79 	(1,58 /Kg.)
Repollo liso unidad (2415 gr aprox.)	1,66 	(0,79 /Kg.)
Setas cultivadas bandeja 400 gr	1,99 	(4,98 /Kg.)
Sopa de la abuela bandeja 300 gr	1,00 	(3,33 /Kg.)
Sopa juliana deshidratada bandeja 100 gr	1,89 	(18,90 /Kg.)
Surtido vegetal bandeja (1265 gr aprox.)	1,38 	(1,25 /Kg.)
Tomate cherry en rama cesta 300 gr	0,99 	(3,30 /Kg.)
Tomate cherry kumato bandeja 250 gr	1,10 	(4,40 /Kg.)
Tomate cherry pera bandeja 250 gr	1,00 	(4,00 /Kg.)
Tomate cherry redondo linea sabor bandeja 250 gr	1,00 	(4,00 /Kg.)
Tomate de la huerta unidad (170 gr aprox.)	0,37 	(2,45 /Kg.)
Tomate de untar bandeja 500 gr	1,59 	(3,18 /Kg.)
Tomate en rama unidad (200 gr aprox.)	0,17 	(0,99 /Kg.)
Tomate ensalada malla 1 Kg	0,89 	(0,89 /Kg.)
Tomate ensalada unidad (205 gr aprox.)	0,25 	(1,39 /Kg.)
Tomate kumato bandeja 500 gr	1,29 	(2,58 /Kg.)
Tomate maduro unidad (135 gr aprox.)	0,12 	(0,99 /Kg.)
Tomate natural rallado 300 gr	1,19 	(3,97 /Kg.)
Tomate pera unidad (125 gr aprox.)	0,17 	(1,55 /Kg.)
Tomate rallado natural 2 tarrinas 220 gr	1,00 	(4,55 /Kg.)
TREVIJANO alga wakame 100% natural bandeja 50 gr	2,29 	(45,80 /Kg.)
TREVIJANO boletus deshidratado bandeja 40 gr	4,49 	(112,25 /Kg.)
Verduras al vapor para microondas bolsa 300 gr	1,00 	(3,33 /Kg.)
Zanahoria bolsa 1 Kg	0,65 	(0,65 /Kg.)
Zanahoria tierna bandeja 500gr	0,85 	(1,70 /Kg.)
Noras bolsa 50 gr	1,49 	(29,80 /Kg.)
